Assignment 3:
…
The workforce availability segments show a similar story. Regions with lower workforce availability exhibit weaker estimates, while the high-workforce subset shows a somewhat stronger association. Still, uncertainty is large, and none of the segments are statistically significant.

For unemployment segments, the differences are also mostly about magnitude. Low-unemployment regions tend to have smaller estimated effects, while medium and high segments show slightly larger coefficients. Again, none of these are precise enough to draw conclusions, but the variation itself suggests that the relationship between development and inequality isn’t identical across labour-market contexts.

Overall, the subset analysis doesn’t point to a single, stable development–inequality relationship across all our regional types. Instead, we see small differences in coefficient size across population density, unemployment, and workforce segments, with no segment showing a statistically significant effect.

Part B: Exploring Alternative Functional Forms

Part C: Testing for Heteroskedacity and Discussing Causality

Part D: Panel Estimates

Data Prep

# A tibble: 1,272 × 14
   NUTS2 Country Time  N2GDPSUM N2POPSUM N2GDPCAP Geo_Labels Pop_km2 Workforce
   <chr> <chr>   <chr>    <dbl>    <dbl>    <dbl> <chr>        <dbl>     <dbl>
 1 CH01  CH      2000        0   1294974       0  <NA>            NA        NA
 2 CH01  CH      2001        0   1303557       0  <NA>            NA        NA
 3 CH01  CH      2002        0   1317017       0  <NA>            NA        NA
 4 CH01  CH      2003        0   1331131       0  <NA>            NA        NA
 5 CH01  CH      2004        0   1348106       0  <NA>            NA        NA
 6 CH01  CH      2005        0   1362754       0  <NA>            NA        NA
 7 CH01  CH      2006        0   1376306       0  <NA>            NA        NA
 8 CH01  CH      2007        0   1389988       0  <NA>            NA        NA
 9 CH01  CH      2008    70043.  1408796   49718. <NA>            NA        NA
10 CH01  CH      2009    73176.  1437592   50902. <NA>            NA        NA
# ℹ 1,262 more rows
# ℹ 5 more variables: Unemp_prct <dbl>, Count <int>, gini <dbl>,
#   lagged_capita <dbl>, chg_gdpc <dbl>

In the code chunk above we load the long format data containing summed GDP and population per NUTS2 from assignment 1, and join on the additional variables from earlier in assignment 3, in addition to the calculated Gini coefficient based on internal GDP variations per region. The dataset containing population density, unemployment rate and total workforce only includes data from 2013 on, so the resulting dataframe (PanelData) contains a few NA-values in the cases where we have GDP data and no additional variables.

# A tibble: 478 × 14
   NUTS2 Country Time  N2GDPSUM N2POPSUM N2GDPCAP Geo_Labels   Pop_km2 Workforce
   <chr> <chr>   <chr>    <dbl>    <dbl>    <dbl> <chr>          <dbl>     <dbl>
 1 CH01  CH      2013    97780.  1519189   64363. Région léma…    185       814.
 2 CH01  CH      2014   100644.  1545817   65108. Région léma…    188.      827 
 3 CH01  CH      2015   114380.  1570594   72826. Région léma…    191.      845.
 4 CH01  CH      2016   115579.  1593839   72516. Région léma…    194.      860.
 5 CH01  CH      2017   112846.  1613522   69938. Région léma…    196.      868 
 6 CH01  CH      2018   114219.  1629841   70080. Région léma…    198.      883 
 7 CH01  CH      2019   119751.  1642580   72904. Région léma…    200.      883.
 8 CH01  CH      2020   119446.  1654751   72184. Région léma…    200.      878.
 9 CH01  CH      2021   129251.  1669608   77414. Région léma…    201.      883.
10 CH02  CH      2013   107372.  1788791   60025. Espace Mitt…    184.     1029 
# ℹ 468 more rows
# ℹ 5 more variables: Unemp_prct <dbl>, Count <int>, gini <dbl>,
#   lagged_capita <dbl>, chg_gdpc <dbl>
…
